Резюме соглашения о вызовах:
Регтстры:
r0 = 0	-		Nuff sad 
r1 		-		Указатель на вершину КАДРА стека (при входе в функцию это значение УМЕНЬШАЕТСЯ на величину кадра стека для ЭТОЙ функции)
r2		-		Назначение не ясно, но компилятор избегает его использование
r3, r4, - 		самые часто используемые регистры
r3, r6  - 		операнды для функции (остальные в стеке)
r9		-		солержит адрес возврата для функции, если функция вызывает еще что-то, то компилятор первым делом сохраняет значение этого регистра в кадре стека этой функции
r11		-		содержит результат выполнения функции, если она не void, иначе её значение не меняется

При входе в функцию первым делом резервируется кадр стека примерно так

>b.addi     r1,r1,-(размер)

Размер ВСЕГДА кратен 4 и зависит от количества переменных и их размера, + 4 если сохраняется адрес возврата
Перед возвратом изменения откатываются назад

>b.addi     r1,r1,(размер)

Если функция будет вызывать другие функции, то сразу-же в ноый кадр стека запихивается значение LR (r9)

>b.sw       0x0(r1),r9

В качестве единственно годного варианта обхода API варпера можно выбран такой метод:
перед операцией SaveContext нужно прибавить к SP (r1) [величину], противоположную изменению варпера, 
но это значение не известно, но есть еще 1 проблема, неизветно что ноа там насохраняла в стеке,
нужен реверс-инжинеринг

После ребута процессор находится в режиме SUPERVISOR, поэтому после инициализации шедулера RestoreContext не вызовет затруднений

Установка прерывания тик-таймера
VECT - сдрес функции-обработчика
1. *0xf001706c <- VECT // сам вектор заносится в какуюто таблицу (это выше чем оператива!)
2. *(*0x44) <- 0x0 // в тот адрес, на который указывает содержимое ячейка 0x44 заносится 0
3. SR[TEE] <- 1 // флаг разрешения работы тик-таймера

> ВСЕ типы преходов выполняются вместе с командой следующей за ними, например
f00000b8:	07 ff ff ea             	l.jal      f0000060 <_vLedTougle> //вызов
f00000bc:	9c 60 40 00             	b.addi     r3,r0,0x4000 //операнд




Функция, вызывающая юзерский обработчик прерывания
    454b:	9c 21 ff f8             	b.addi     r1,r1,-0x8	// захват кадра стека
    454f:	d4 01 10 04             	b.sw       0x4(r1),r2	// sp[4] = r2
    4553:	9c 41 00 08             	b.addi     r2,r1,0x8	// r2 = предидущий кадр стека
    4557:	d4 01 48 00             	b.sw       0x0(r1),r9	// sp[0] = r9
    455b:	07 ff ff af             	l.jal      0x4417		// вызов 0x4417 (там какаято муть в системный таймер записывается 0xffffffff и  все)
    455f:	15 00 00 00             	b.nop      0x0
	4563:	18 60 f0 01             	b.movhi    r3,0xf001    //указатель на функцию-обработчик лежит здесь
    4567:	a8 63 70 6c             	b.ori      r3,r3,0x706c // 0xf001706c
    456b:	84 a3 00 00             	b.lwz      r5,0x0(r3)	
    456f:	bc 05 00 00             	b.sfeqi    r5,0x0		// NULL?
    4573:	10 00 00 04             	b.bf       0x4583		// да goto <Эта_же_функция-0x4583>
    4577:	9c 60 00 00             	b.addi     r3,r0,0x0	// обнуление аргумента вызова функции
    457b:	48 00 28 00             	l.jalr     r5			// переход к обработчику
    457f:	9c 80 00 01             	b.addi     r4,r0,0x1	// r4 = 1
    4583:	b4 60 50 00             	b.mfspr    r3,r0,0x5000	// читаем регистр флагов системного таймера
    4587:	b8 63 00 5e             	b.srli     r3,r3,0x1e	// r3 >>= 30
    458b:	bc 23 00 02             	b.sfnei    r3,0x2		// проверяется бит IP (InterruptPending)
    458f:	10 00 00 04             	b.bf       0x459f		// преход если да (1) <Эта_же_функция-0x459f>
    4593:	15 00 00 00             	b.nop      0x0
    4597:	07 ff ff c6             	l.jal      0x44af		// вызов по 0x44af (там очистка флага IP)
    459b:	9c 60 00 00             	b.addi     r3,r0,0x0	// r3 += 0
    459f:	85 21 00 00             	b.lwz      r9,0x0(r1)	// r9 = sp[0] восстановление сохранениых значение из стека
    45a3:	84 41 00 04             	b.lwz      r2,0x4(r1)	// r2 = sp[4]
    45a7:	44 00 48 00             	l.jr       r9			// return
    45ab:	9c 21 00 08             	b.addi     r1,r1,0x8	// освобождение кадра стека
Короче, если о адресу 0xf001706c лежит не NULL то взывается некий обработчикс этим не нулевым адресом
+ очищается флаг IP регистра Spsr(5000) (системный таймер)

Начальный обработчик прерывания SystemTimer
	 4ff:	9c 21 ff 68             	b.addi     r1,r1,-0x98
     503:	d4 01 18 0c             	b.sw       0xc(r1),r3
     507:	d4 01 20 10             	b.sw       0x10(r1),r4
     50b:	d4 01 28 14             	b.sw       0x14(r1),r5
     50f:	d4 01 30 18             	b.sw       0x18(r1),r6
     513:	d4 01 38 1c             	b.sw       0x1c(r1),r7
     517:	d4 01 40 20             	b.sw       0x20(r1),r8
     51b:	d4 01 48 24             	b.sw       0x24(r1),r9
     51f:	d4 01 58 2c             	b.sw       0x2c(r1),r11
     523:	d4 01 68 34             	b.sw       0x34(r1),r13
     527:	d4 01 78 3c             	b.sw       0x3c(r1),r15
     52b:	d4 01 88 44             	b.sw       0x44(r1),r17
     52f:	d4 01 98 4c             	b.sw       0x4c(r1),r19
     533:	d4 01 a8 54             	b.sw       0x54(r1),r21
     537:	d4 01 b8 5c             	b.sw       0x5c(r1),r23
     53b:	d4 01 c8 64             	b.sw       0x64(r1),r25
     53f:	d4 01 d8 6c             	b.sw       0x6c(r1),r27
     543:	d4 01 e8 74             	b.sw       0x74(r1),r29
     547:	d4 01 f8 7c             	b.sw       0x7c(r1),r31
     54b:	d4 01 00 00             	b.sw       0x0(r1),r0
     54f:	d4 01 10 08             	b.sw       0x8(r1),r2
     553:	d4 01 50 28             	b.sw       0x28(r1),r10
     557:	d4 01 60 30             	b.sw       0x30(r1),r12
     55b:	d4 01 70 38             	b.sw       0x38(r1),r14
     55f:	d4 01 80 40             	b.sw       0x40(r1),r16
     563:	d4 01 90 48             	b.sw       0x48(r1),r18
     567:	d4 01 a0 50             	b.sw       0x50(r1),r20
     56b:	d4 01 b0 58             	b.sw       0x58(r1),r22
     56f:	d4 01 c0 60             	b.sw       0x60(r1),r24
     573:	d4 01 d0 68             	b.sw       0x68(r1),r26
     577:	d4 01 e0 70             	b.sw       0x70(r1),r28
     57b:	d4 01 f0 78             	b.sw       0x78(r1),r30
     57f:	b4 a0 28 01             	b.mfspr    r5,r0,0x2801
     583:	d4 01 28 84             	b.sw       0x84(r1),r5
     587:	b4 a0 28 02             	b.mfspr    r5,r0,0x2802
     58b:	d4 01 28 80             	b.sw       0x80(r1),r5
     58f:	9c a1 00 98             	b.addi     r5,r1,0x98
     593:	d4 01 28 04             	b.sw       0x4(r1),r5
     597:	b4 a0 00 20             	b.mfspr    r5,r0,0x20
     59b:	d4 01 28 90             	b.sw       0x90(r1),r5
     59f:	b4 a0 00 40             	b.mfspr    r5,r0,0x40
     5a3:	d4 01 28 8c             	b.sw       0x8c(r1),r5
     5a7:	b4 a0 00 30             	b.mfspr    r5,r0,0x30
     5ab:	d4 01 28 94             	b.sw       0x94(r1),r5
     5af:	a8 80 00 05             	b.ori      r4,r0,0x5
     5b3:	d4 01 20 88             	b.sw       0x88(r1),r4
     5b7:	18 a0 f0 01             	b.movhi    r5,0xf001
     5bb:	a8 a5 7f 94             	b.ori      r5,r5,0x7f94
     5bf:	84 a5 00 00             	b.lwz      r5,0x0(r5)
     5c3:	44 00 28 00             	l.jr       r5
     5c7:	e0 60 08 04             	b.or       r3,r0,r1
     
Bus Error			2	->	0xf0017f88
Tick Timer			5	->	0xf0017f94
Alignment			6	->	0xf0017f98
Illegal Instruction	7	->	0xf0017f9c
Hardware Interrupts	8	->	0xf0017fa0
System Call			c	->	0xf0017fb0
Начало таблицы - 0xf0017f80
